…
    ## Warning: There was 1 warning in `mutate()`.
    ## ℹ In argument: `eop_size = case_when(...)`.
    ## Caused by warning in `eop_size == 2:5`:
    ## ! longer object length is not a multiple of shorter object length

``` r
raw_df
```

    ## # A tibble: 1,221 × 9
    ##    sex      age age_group eop_size_mm eop_size  eop_visibility_class…¹ eop_shape
    ##    <fct>  <dbl> <ord>           <dbl> <ord>     <ord>                  <chr>    
    ##  1 male      18 18–30            14.8 large (1… visible                3        
    ##  2 male      26 18–30            17.1 large (1… visible                3        
    ##  3 female    22 18–30            NA   small (0… partially_visible      <NA>     
    ##  4 male      20 18–30            23.9 <NA>      visible                1        
    ##  5 female    27 18–30            NA   small (0… not_visible            <NA>     
    ##  6 female    28 18–30             7.9 medium (… visible                2        
    ##  7 female    17 <NA>              6.4 medium (… visible                1        
    ##  8 male      21 18–30             9.4 medium (… visible                2        
    ##  9 female    25 18–30            NA   small (0… not_visible            <NA>     
    ## 10 male      30 18–30            16.5 large (1… visible                2        
    ## # ℹ 1,211 more rows
    ## # ℹ abbreviated name: ¹​eop_visibility_classification
    ## # ℹ 2 more variables: fhp_size_mm <dbl>, fhp_category <ord>
…
